…
What I do always end up with is generating a dataset that summarises
what I would like to iterate over in simulation.

The `sim_df` takes user inputs for distributions, numbers of studies,
between-study error \(\tau\), within-study error \(\varepsilon\), and
the proportion \(\rho\) of sample size we expect the sample sizes to
different within study cohorts.

``` r
# defaults
sim_df() 
#> # A tibble: 90 x 9
#>        k between_study_v… median_ratio  prop rdist parameters n     id   
#>    <dbl>            <dbl>        <dbl> <dbl> <chr> <list>     <lis> <chr>
#>  1     3                0            1   0.3 norm  <list [2]> <tib… sim_1
#>  2     3                0            1   0.3 exp   <list [1]> <tib… sim_2
#>  3     3                0            1   0.3 pare… <list [2]> <tib… sim_3
#>  4     3                0            1   0.3 pare… <list [2]> <tib… sim_4
#>  5     3                0            1   0.3 lnorm <list [2]> <tib… sim_5
#>  6     7                0            1   0.3 norm  <list [2]> <tib… sim_6
#>  7     7                0            1   0.3 exp   <list [1]> <tib… sim_7
#>  8     7                0            1   0.3 pare… <list [2]> <tib… sim_8
#>  9     7                0            1   0.3 pare… <list [2]> <tib… sim_9
#> 10     7                0            1   0.3 lnorm <list [2]> <tib… sim_…
#> # … with 80 more rows, and 1 more variable: true_median <dbl>
…
